<?xml version="1.0" encoding="utf-8"?>
<!-- Generator: Adobe Illustrator 18.0.0, SVG Export Plug-In . SVG Version: 6.00 Build 0)  -->
<!DOCTYPE svg PUBLIC "-//W3C//DTD SVG 1.1//EN" "http://www.w3.org/Graphics/SVG/1.1/DTD/svg11.dtd">
<svg version="1.1" id="图层_1" xmlns="http://www.w3.org/2000/svg" xmlns:xlink="http://www.w3.org/1999/xlink" x="0px" y="0px"
	 viewBox="0 0 50 50" enable-background="new 0 0 50 50" xml:space="preserve">
<path fill="#FFFFFF" d="M36.7,20.7H24l6.2-18.3c0.1-0.3-0.3-0.5-0.5-0.3L12.4,24.4c-0.6,0.8,0,1.9,0.9,1.9H24l-6.5,21.3
	c-0.1,0.3,0.3,0.5,0.5,0.3l19.6-25.3C38.2,21.8,37.6,20.7,36.7,20.7z"/>
</svg>
