<?xml version="1.0" encoding="utf-8"?>
<!-- Generator: Adobe Illustrator 18.0.0, SVG Export Plug-In . SVG Version: 6.00 Build 0)  -->
<!DOCTYPE svg PUBLIC "-//W3C//DTD SVG 1.1//EN" "http://www.w3.org/Graphics/SVG/1.1/DTD/svg11.dtd">
<svg version="1.1" id="图层_1" xmlns="http://www.w3.org/2000/svg" xmlns:xlink="http://www.w3.org/1999/xlink" x="0px" y="0px"
	 viewBox="0 0 50 50" enable-background="new 0 0 50 50" xml:space="preserve">
<g>
	<g>
		<g>
			<path fill="#AA4929" d="M25,6c11.1,0,20.1,9,20.1,20.1c0,5.6-2.3,10.8-6.2,14.5c0.3-1.1,0.4-2.3,0.4-3.5
				c0-7.9-6.4-14.3-14.3-14.3c-4.6,0-8.4-3.8-8.4-8.4C16.6,9.8,20.4,6,25,6 M25,4c-5.7,0-10.4,4.7-10.4,10.4S19.3,24.8,25,24.8
				c6.8,0,12.3,5.5,12.3,12.3c0,4-1.9,7.5-4.8,9.7c8.5-3.1,14.6-11.2,14.6-20.7C47.1,13.9,37.2,4,25,4L25,4z"/>
		</g>
	</g>
	<g>
		<circle fill="#AA4929" cx="24.8" cy="14.3" r="2"/>
	</g>
	<g>
		<g>
			<path fill="#AA4929" d="M10.4,11.5c-0.3,1.1-0.4,2.3-0.4,3.5c0,7.9,6.4,14.3,14.3,14.3c4.6,0,8.4,3.8,8.4,8.4
				c0,4.6-3.8,8.4-8.4,8.4C13.2,46,4.2,37,4.2,26C4.2,20.4,6.5,15.2,10.4,11.5 M16.8,5.2C8.3,8.3,2.2,16.4,2.2,26
				C2.2,38.2,12.1,48,24.3,48c5.7,0,10.4-4.7,10.4-10.4S30,27.2,24.3,27.2c-6.8,0-12.3-5.5-12.3-12.3C12,11,13.8,7.5,16.8,5.2
				L16.8,5.2z"/>
		</g>
	</g>
	<g>
		<circle fill="#AA4929" cx="24.4" cy="37.8" r="2"/>
	</g>
</g>
</svg>
