<?xml version="1.0" encoding="utf-8"?>
<!-- Generator: Adobe Illustrator 18.0.0, SVG Export Plug-In . SVG Version: 6.00 Build 0)  -->
<!DOCTYPE svg PUBLIC "-//W3C//DTD SVG 1.1//EN" "http://www.w3.org/Graphics/SVG/1.1/DTD/svg11.dtd">
<svg version="1.1" id="图层_1" xmlns="http://www.w3.org/2000/svg" xmlns:xlink="http://www.w3.org/1999/xlink" x="0px" y="0px"
	 viewBox="0 0 36 36" enable-background="new 0 0 36 36" xml:space="preserve">
<g>
	<g>
		<g>
			<g>
				<g>
					<g>
						<path fill="#727171" d="M18.2,10.7c4.9,0,8.8,3.8,8.8,8.5c0,2.2-0.9,4.3-2.5,5.9c0.1-0.4,0.1-0.7,0.1-1.1
							c0-3.5-2.9-6.3-6.5-6.3c-2,0-3.6-1.6-3.6-3.5S16.2,10.7,18.2,10.7 M18.2,9.7c-2.6,0-4.6,2-4.6,4.5c0,2.5,2.1,4.5,4.6,4.5
							c3,0,5.5,2.4,5.5,5.3c0,1.7-0.8,3.2-2.1,4.2c3.8-1.3,6.5-4.8,6.5-8.9C28,14,23.6,9.7,18.2,9.7L18.2,9.7z"/>
					</g>
				</g>
			</g>
		</g>
		<g>
			<ellipse fill="#727171" cx="18.1" cy="14.2" rx="1" ry="1"/>
		</g>
		<g>
			<g>
				<g>
					<g>
						<path fill="#727171" d="M11.5,13.3c-0.1,0.4-0.1,0.7-0.1,1.1c0,3.5,2.9,6.3,6.5,6.3c2,0,3.6,1.6,3.6,3.5s-1.6,3.5-3.6,3.5
							C13,27.7,9,23.9,9,19.2C9,17,9.9,14.9,11.5,13.3 M14.5,10.3L14.5,10.3L14.5,10.3z M14.5,10.3C10.7,11.6,8,15.1,8,19.2
							c0,5.3,4.4,9.5,9.8,9.5c2.6,0,4.6-2,4.6-4.5c0-2.5-2.1-4.5-4.6-4.5c-3,0-5.5-2.4-5.5-5.3C12.4,12.7,13.2,11.2,14.5,10.3
							L14.5,10.3z"/>
					</g>
				</g>
			</g>
		</g>
		<g>
			<ellipse fill="#727171" cx="17.9" cy="24.3" rx="1" ry="1"/>
		</g>
	</g>
	<polygon fill="none" stroke="#727171" stroke-linecap="round" stroke-miterlimit="10" points="8.7,32.3 3,14.6 18,3.7 33,14.6 
		27.3,32.3 	"/>
	<circle fill="#727171" cx="18" cy="3.7" r="1.5"/>
	<circle fill="#727171" cx="3" cy="14.7" r="1.5"/>
	<circle fill="#727171" cx="33" cy="14.7" r="1.5"/>
	<circle fill="#727171" cx="27.1" cy="32.3" r="1.5"/>
	<circle fill="#727171" cx="8.7" cy="32.3" r="1.5"/>
</g>
</svg>
