<?xml version="1.0" encoding="utf-8"?>
<!-- Generator: Adobe Illustrator 18.0.0, SVG Export Plug-In . SVG Version: 6.00 Build 0)  -->
<!DOCTYPE svg PUBLIC "-//W3C//DTD SVG 1.1//EN" "http://www.w3.org/Graphics/SVG/1.1/DTD/svg11.dtd">
<svg version="1.1" id="图层_1" xmlns="http://www.w3.org/2000/svg" xmlns:xlink="http://www.w3.org/1999/xlink" x="0px" y="0px"
	 viewBox="0 0 62 62" enable-background="new 0 0 62 62" xml:space="preserve">
<g>
	<path fill="#BC7E7D" d="M58,62H4c-2.2,0-4-1.8-4-4L0,4c0-2.2,1.8-4,4-4h54c2.2,0,4,1.8,4,4v54C62,60.2,60.2,62,58,62z"/>
	<path fill="none" stroke="#FFFFFF" stroke-miterlimit="10" d="M45.3,41.6v7.1c0,1.3-1,2.4-2.3,2.4H17.6c-1.3,0-2.3-1.1-2.3-2.4
		V13.4c0-1.3,1-2.4,2.3-2.4H43c1.3,0,2.3,1.1,2.3,2.4V26"/>
	<path fill="none" stroke="#FFFFFF" stroke-miterlimit="10" d="M22.3,11v4.5c0,0.8,0.5,1.5,1.1,1.5h4.9c0.4,0,0.8-0.2,1-0.7
		c0.2-0.5,0.6-0.8,1-0.8c0.4,0,0.8,0.3,1,0.8c0.2,0.5,0.6,0.7,1,0.7h4.9c0.6,0,1.1-0.7,1.1-1.5V11H22.3z"/>
	<line fill="none" stroke="#FFFFFF" stroke-miterlimit="10" x1="20" y1="22.5" x2="40.7" y2="22.5"/>
	<line fill="none" stroke="#FFFFFF" stroke-miterlimit="10" x1="20" y1="28" x2="35" y2="28"/>
	<line fill="none" stroke="#FFFFFF" stroke-miterlimit="10" x1="20" y1="33.4" x2="29.2" y2="33.4"/>
	<polyline fill="none" stroke="#FFFFFF" stroke-width="2" stroke-miterlimit="10" points="47.5,28.9 30,46.4 22.2,38.7 	"/>
</g>
</svg>
