<?xml version="1.0" encoding="utf-8"?>
<!-- Generator: Adobe Illustrator 18.0.0, SVG Export Plug-In . SVG Version: 6.00 Build 0)  -->
<!DOCTYPE svg PUBLIC "-//W3C//DTD SVG 1.1//EN" "http://www.w3.org/Graphics/SVG/1.1/DTD/svg11.dtd">
<svg version="1.1" id="图层_1" xmlns="http://www.w3.org/2000/svg" xmlns:xlink="http://www.w3.org/1999/xlink" x="0px" y="0px"
	 viewBox="0 0 35 35" enable-background="new 0 0 35 35" xml:space="preserve">
<g>
	<g>
		<path fill="#727171" d="M17.5,1.5c8.8,0,16,7.2,16,16s-7.2,16-16,16s-16-7.2-16-16S8.7,1.5,17.5,1.5 M17.5,0.5
			c-9.4,0-17,7.6-17,17s7.6,17,17,17s17-7.6,17-17S26.9,0.5,17.5,0.5L17.5,0.5z"/>
	</g>
	<line fill="none" stroke="#727171" stroke-miterlimit="10" x1="5.5" y1="5.5" x2="29.5" y2="29.5"/>
	<line fill="none" stroke="#727171" stroke-miterlimit="10" x1="29.5" y1="5.5" x2="5.5" y2="29.5"/>
</g>
</svg>
