<?xml version="1.0" encoding="utf-8"?>
<!-- Generator: Adobe Illustrator 21.0.0, SVG Export Plug-In . SVG Version: 6.00 Build 0)  -->
<svg version="1.1" id="图层_1" xmlns="http://www.w3.org/2000/svg" xmlns:xlink="http://www.w3.org/1999/xlink" x="0px" y="0px"
	 viewBox="0 0 130 130" style="enable-background:new 0 0 130 130;" xml:space="preserve">
<style type="text/css">
	.st0{fill:#FFFFFF;stroke:#727171;stroke-width:4;stroke-linecap:round;stroke-miterlimit:10;}
	.st1{fill:#9A4A42;}
	.st2{fill:#FFFFFF;}
	.st3{font-family:'FZDHTJW--GB1-0';}
	.st4{font-size:46.5617px;}
	.st5{fill:none;stroke:#727171;stroke-width:2;stroke-miterlimit:10;}
</style>
<circle class="st0" cx="65.4" cy="65.2" r="46.5"/>
<path class="st1" d="M65.2,35.1c0,0-43.9,52.4-0.9,59.9C64.3,95,114.3,92.8,65.2,35.1z"/>
<text transform="matrix(1 0 0 1 52.2744 81.7129)" class="st2 st3 st4">+</text>
<line class="st5" x1="65.4" y1="18.7" x2="65.4" y2="29.5"/>
<line class="st5" x1="65.4" y1="100.8" x2="65.4" y2="111.6"/>
<line class="st5" x1="112.3" y1="65.2" x2="101.5" y2="65.2"/>
<line class="st5" x1="30.2" y1="65.2" x2="19.4" y2="65.2"/>
</svg>
