<?xml version="1.0" encoding="utf-8"?>
<!-- Generator: Adobe Illustrator 18.0.0, SVG Export Plug-In . SVG Version: 6.00 Build 0)  -->
<!DOCTYPE svg PUBLIC "-//W3C//DTD SVG 1.1//EN" "http://www.w3.org/Graphics/SVG/1.1/DTD/svg11.dtd">
<svg version="1.1" id="图层_1" xmlns="http://www.w3.org/2000/svg" xmlns:xlink="http://www.w3.org/1999/xlink" x="0px" y="0px"
	 viewBox="0 0 130 130" enable-background="new 0 0 130 130" xml:space="preserve">
<g>
	<ellipse fill="none" stroke="#727171" stroke-linecap="round" stroke-miterlimit="10" cx="26.1" cy="73.8" rx="11.1" ry="9.9"/>
	<ellipse fill="none" stroke="#727171" stroke-linecap="round" stroke-miterlimit="10" cx="103.9" cy="73.8" rx="11.1" ry="9.9"/>
	
		<circle fill="#FFFFFF" stroke="#727171" stroke-width="2" stroke-linecap="round" stroke-miterlimit="10" cx="65.3" cy="71.8" r="39.4"/>
	<path fill="#9A4A42" d="M101.7,52c-13,4.7-48.5,3-48.5,3s-1.1-7.8-3.6-11.1c-3.5,6-4.7,11.1-4.7,11.1s-14.2,0.7-16.8-2.5
		c0-6.1,9.1-27.3,35.6-27.3S101.7,41.5,101.7,52z"/>
	<path fill="none" stroke="#727171" stroke-linecap="round" stroke-miterlimit="10" d="M53.4,91.3c2.6,3.1,6.9,5.1,11.9,5.1
		s9.4-2,11.9-5.1"/>
	<path fill="none" stroke="#727171" stroke-linecap="round" stroke-miterlimit="10" d="M37.1,73.3c1.9-2.3,5.1-3.8,8.7-3.8
		c3.7,0,6.9,1.5,8.7,3.8"/>
	<path fill="none" stroke="#727171" stroke-linecap="round" stroke-miterlimit="10" d="M75.6,73.3c1.9-2.3,5.1-3.8,8.7-3.8
		s6.9,1.5,8.7,3.8"/>
	<g>
		<circle fill="#9A4A42" cx="37.9" cy="80.4" r="0.9"/>
		<circle fill="#9A4A42" cx="44.8" cy="85.7" r="0.9"/>
		<circle fill="#9A4A42" cx="50.6" cy="80.4" r="0.9"/>
		<circle fill="#9A4A42" cx="56" cy="83.6" r="0.9"/>
		<circle fill="#9A4A42" cx="80" cy="79.6" r="0.9"/>
		<circle fill="#9A4A42" cx="84.6" cy="84.2" r="0.9"/>
		<circle fill="#9A4A42" cx="93.6" cy="85.1" r="0.9"/>
		<circle fill="#9A4A42" cx="89.7" cy="80" r="0.9"/>
	</g>
</g>
</svg>
