<?xml version="1.0" encoding="utf-8"?>
<!-- Generator: Adobe Illustrator 18.0.0, SVG Export Plug-In . SVG Version: 6.00 Build 0)  -->
<!DOCTYPE svg PUBLIC "-//W3C//DTD SVG 1.1//EN" "http://www.w3.org/Graphics/SVG/1.1/DTD/svg11.dtd">
<svg version="1.1" id="图层_1" xmlns="http://www.w3.org/2000/svg" xmlns:xlink="http://www.w3.org/1999/xlink" x="0px" y="0px"
	 viewBox="0 0 130 130" enable-background="new 0 0 130 130" xml:space="preserve">
<g>
	<path fill="#F4F2E9" stroke="#727171" stroke-linecap="round" stroke-miterlimit="10" d="M71.3,24.7c-7.4,0-14,3.3-18.5,8.5
		c-4.5-5.2-11.1-8.5-18.5-8.5C20.9,24.7,10,35.6,10,49c0,22.7,42.8,50,42.8,50s42.8-27.6,42.8-50C95.6,35.6,84.7,24.7,71.3,24.7z"/>
	
		<polyline fill="none" stroke="#727171" stroke-width="2" stroke-linecap="round" stroke-linejoin="round" stroke-miterlimit="10" points="
		11.7,67.9 18.3,67.9 21.8,58.6 26.8,72 36.8,45.6 45.5,68.7 51.1,68.7 	"/>
	<circle fill="#727171" cx="52.6" cy="68.9" r="4.7"/>
	<circle fill="#FFFFFF" stroke="#9A4A42" stroke-width="2" stroke-miterlimit="10" cx="92.4" cy="77.7" r="27.6"/>
	<g>
		<line fill="none" stroke="#727171" stroke-linecap="round" stroke-miterlimit="10" x1="69.6" y1="77.7" x2="75.8" y2="77.7"/>
		<line fill="none" stroke="#727171" stroke-linecap="round" stroke-miterlimit="10" x1="109" y1="77.7" x2="115.2" y2="77.7"/>
	</g>
	<g>
		<line fill="none" stroke="#727171" stroke-linecap="round" stroke-miterlimit="10" x1="92.4" y1="100.2" x2="92.4" y2="94"/>
		<line fill="none" stroke="#727171" stroke-linecap="round" stroke-miterlimit="10" x1="92.4" y1="60.8" x2="92.4" y2="54.6"/>
	</g>
	<path fill="#9A4A42" d="M94.4,74.3c-0.7-0.5-1.4-0.6-2.1-0.6c-1,0-2-0.5-2.8-1.2l-3-3l-2.5,2.5l3,3c0.7,0.7,1.2,1.7,1.2,2.8
		c0,0.6,0.2,1.3,0.6,2.1c0.7,1.1,1.8,1.9,3.1,2c2.5,0.2,4.5-1.9,4.3-4.3C96.3,76.1,95.5,75,94.4,74.3z"/>
</g>
</svg>
