<?xml version="1.0" encoding="utf-8"?>
<!-- Generator: Adobe Illustrator 18.0.0, SVG Export Plug-In . SVG Version: 6.00 Build 0)  -->
<!DOCTYPE svg PUBLIC "-//W3C//DTD SVG 1.1//EN" "http://www.w3.org/Graphics/SVG/1.1/DTD/svg11.dtd">
<svg version="1.1" id="图层_1" xmlns="http://www.w3.org/2000/svg" xmlns:xlink="http://www.w3.org/1999/xlink" x="0px" y="0px"
	 viewBox="0 0 161 161" enable-background="new 0 0 161 161" xml:space="preserve">
<g>
	<path fill="none" stroke="#727171" stroke-width="2" stroke-linecap="round" stroke-linejoin="round" stroke-miterlimit="10" d="
		M129.6,67.5c0,16.8-23.8,30.5-53.2,30.5S23.2,84.3,23.2,67.5c0-4,1.3-7.8,3.8-11.3c0.7-1,2.2-1,3.1-1.9c1.4-1.6,2.4-4,4.3-5.4
		c2.1-1.6,4.9-1.9,7.5-3.3c1.7-0.8,3.1-2.7,5-3.4c2.8-1.1,5.7-1.1,8.8-1.8c1.6-0.4,3.3-1.7,5-2c2.1-0.4,4.3,0,6.5-0.3
		c3-0.3,4.6-2.4,7.6-1.6c3,0.8,6.4-0.3,8.8-0.1c3.1,0.2,5.7,2.9,8.6,3.5c2.9,0.5,6.3-0.2,9,0.6c1,0.3,2.2,2.3,3.2,2.7
		c1.1,0.4,4.6-0.5,5.6-0.1c3.2,1.3,3.5,2.4,6.1,4.1c1.4,0.9,2.1,3,3.3,3.9c1.7,1.4,3.8,1.6,5.1,3.2c0.7,0.8,1.3,1.6,1.9,2.5
		C128.4,60,129.6,63.7,129.6,67.5z"/>
	<path fill="#F4F2E9" stroke="#727171" stroke-width="2" stroke-miterlimit="10" d="M129.2,62.3H23.5c-2.6,0-4.6,2.2-4.4,4.8
		c1.8,22.5,16.7,40.5,37.1,49.4v2.7c0,1.6,1.3,2.9,2.9,2.9h34.5c1.6,0,2.9-1.3,2.9-2.9v-2.7c20.4-8.8,35.2-26.8,37.1-49.4
		C133.8,64.5,131.8,62.3,129.2,62.3z"/>
	<polyline fill="none" stroke="#9A4A42" stroke-linecap="round" stroke-linejoin="round" stroke-miterlimit="10" points="35.8,71.6 
		27.7,78.4 19.6,71.6 	"/>
	<polyline fill="none" stroke="#9A4A42" stroke-linecap="round" stroke-linejoin="round" stroke-miterlimit="10" points="52,71.6 
		43.9,78.4 35.8,71.6 	"/>
	<polyline fill="none" stroke="#9A4A42" stroke-linecap="round" stroke-linejoin="round" stroke-miterlimit="10" points="68.2,71.6 
		60.1,78.4 52,71.6 	"/>
	<polyline fill="none" stroke="#9A4A42" stroke-linecap="round" stroke-linejoin="round" stroke-miterlimit="10" points="84.5,71.6 
		76.4,78.4 68.2,71.6 	"/>
	<polyline fill="none" stroke="#9A4A42" stroke-linecap="round" stroke-linejoin="round" stroke-miterlimit="10" points="
		100.7,71.6 92.6,78.4 84.5,71.6 	"/>
	<polyline fill="none" stroke="#9A4A42" stroke-linecap="round" stroke-linejoin="round" stroke-miterlimit="10" points="
		116.9,71.6 108.8,78.4 100.7,71.6 	"/>
	<polyline fill="none" stroke="#9A4A42" stroke-linecap="round" stroke-linejoin="round" stroke-miterlimit="10" points="
		133.1,71.6 125,78.4 116.9,71.6 	"/>
	<polyline fill="none" stroke="#9A4A42" stroke-linecap="round" stroke-linejoin="round" stroke-miterlimit="10" points="37.3,80.6 
		29.5,87.4 21.7,80.6 	"/>
	<polyline fill="none" stroke="#9A4A42" stroke-linecap="round" stroke-linejoin="round" stroke-miterlimit="10" points="52.9,80.6 
		45.1,87.4 37.3,80.6 	"/>
	<polyline fill="none" stroke="#9A4A42" stroke-linecap="round" stroke-linejoin="round" stroke-miterlimit="10" points="68.6,80.6 
		60.8,87.4 53,80.6 	"/>
	<polyline fill="none" stroke="#9A4A42" stroke-linecap="round" stroke-linejoin="round" stroke-miterlimit="10" points="84.1,80.6 
		76.4,87.4 68.6,80.6 	"/>
	<polyline fill="none" stroke="#9A4A42" stroke-linecap="round" stroke-linejoin="round" stroke-miterlimit="10" points="99.7,80.6 
		91.9,87.4 84.1,80.6 	"/>
	<polyline fill="none" stroke="#9A4A42" stroke-linecap="round" stroke-linejoin="round" stroke-miterlimit="10" points="
		115.3,80.6 107.5,87.4 99.7,80.6 	"/>
	<polyline fill="none" stroke="#9A4A42" stroke-linecap="round" stroke-linejoin="round" stroke-miterlimit="10" points="131,80.6 
		123.2,87.4 115.4,80.6 	"/>
	<g>
		<path fill="#F4F2E9" d="M130.8,124c-0.8-0.1-8.9-0.9-12.5-0.9c-4.6,0-7.1,0.3-8.5,0.6v-11.5c1.5,0.8,4.1,1.6,8.6,1.6
			c7.3,0,12-3.2,13.2-4.1h8.1V124H130.8z"/>
		<path fill="#727171" d="M138.8,110.6V123h-7.9c-1.1-0.1-9-0.9-12.6-0.9c-2.5,0-5.3,0.1-7.5,0.4v-8.8c1.7,0.6,4.2,1,7.6,1
			c7.1,0,11.9-2.9,13.6-4.1H138.8 M140.8,108.6h-9.5c0,0-4.8,4.1-12.9,4.1s-9.6-2.6-9.6-2.6V125c0,0,1.3-0.9,9.5-0.9
			c3.7,0,12.5,0.9,12.5,0.9h10V108.6L140.8,108.6z"/>
	</g>
	<line fill="none" stroke="#727171" stroke-miterlimit="10" x1="131.9" y1="109.6" x2="131.9" y2="123.7"/>
	<path fill="#F4F2E9" stroke="#727171" stroke-miterlimit="10" d="M21.3,123.9l-0.3-1.7c-0.1-0.9,0.5-1.7,1.4-1.9l112.4-16.2
		c0.9-0.1,1.7,0.5,1.9,1.4l0,0c0.1,0.9-0.5,1.7-1.4,1.9L23.2,125.3C22.3,125.5,21.5,124.8,21.3,123.9z"/>
	<path fill="#F4F2E9" stroke="#727171" stroke-miterlimit="10" d="M26.7,124.8l-0.3-1.7c-0.1-0.9,0.5-1.7,1.4-1.9L140,104.1
		c0.9-0.1,1.7,0.5,1.9,1.4l0,0c0.1,0.9-0.5,1.7-1.3,1.9l-112,18.9C27.7,126.3,26.8,125.7,26.7,124.8z"/>
</g>
</svg>
