<?xml version="1.0" encoding="utf-8"?>
<!-- Generator: Adobe Illustrator 18.0.0, SVG Export Plug-In . SVG Version: 6.00 Build 0)  -->
<!DOCTYPE svg PUBLIC "-//W3C//DTD SVG 1.1//EN" "http://www.w3.org/Graphics/SVG/1.1/DTD/svg11.dtd">
<svg version="1.1" id="图层_1" xmlns="http://www.w3.org/2000/svg" xmlns:xlink="http://www.w3.org/1999/xlink" x="0px" y="0px"
	 viewBox="0 0 69 69" enable-background="new 0 0 69 69" xml:space="preserve">
<g>
	<path fill="none" stroke="#727171" stroke-width="2" stroke-miterlimit="10" d="M59.3,51.4v11.4c0,2.1-1.7,3.8-3.8,3.8H13.1
		c-2.1,0-3.8-1.7-3.8-3.8V6.3c0-2.1,1.7-3.8,3.8-3.8h42.3c2.1,0,3.8,1.7,3.8,3.8v20.2"/>
	<path fill="none" stroke="#727171" stroke-width="2" stroke-miterlimit="10" d="M22.3,3v5.3c0,1,0.8,1.8,1.7,1.8h7.3
		c0.6,0,1.2-0.3,1.4-0.8c0.3-0.6,0.9-0.9,1.5-0.9s1.2,0.4,1.5,0.9c0.3,0.5,0.9,0.8,1.4,0.8h7.3c0.9,0,1.7-0.8,1.7-1.8V3H22.3z"/>
	<line fill="none" stroke="#727171" stroke-width="2" stroke-miterlimit="10" x1="17.3" y1="21.3" x2="51.3" y2="21.3"/>
	<line fill="none" stroke="#727171" stroke-width="2" stroke-miterlimit="10" x1="17.3" y1="30.2" x2="41.3" y2="30.2"/>
	<line fill="none" stroke="#727171" stroke-width="2" stroke-miterlimit="10" x1="17.3" y1="39" x2="31.3" y2="39"/>
	<g>
		<g>
			<path fill="#727171" d="M49.9,54.7c0-3.2,0.1-5.7,2.4-8c2.5-2.6,5.9-4.9,5.9-8.1c0-3.1-2.5-5.6-6.7-5.6c-4.2,0-6.7,3.2-6.6,7.3
				h-2.6c-0.4-5.7,3.7-9.6,9.3-9.6c5.9,0,9.4,3.2,9.4,8.1c0,5-5.1,6.8-7.6,10.8c-0.9,1.5-0.9,3.4-0.9,5.1H49.9z M49.6,62.5v-3.8h3.2
				v3.8H49.6z"/>
		</g>
	</g>
</g>
</svg>
